Chapter 1 Data handling with R | Getting started with R and R-spatial
…
##       country year      pop continent lifeExp gdpPercap
## 1 Afghanistan 1952  8425333      Asia  28.801  779.4453
## 2 Afghanistan 1957  9240934      Asia  30.332  820.8530
## 3 Afghanistan 1962 10267083      Asia  31.997  853.1007
## 4 Afghanistan 1967 11537966      Asia  34.020  836.1971
## 5 Afghanistan 1972 13079460      Asia  36.088  739.9811
## 6 Afghanistan 1977 14880372      Asia  38.438  786.1134

We can transform a dataframe into a tibble to access their better print() method that combines head() and glimpse().
Tibbles are at the core of the Tidyverse packages.

gapminder <- as_tibble(gapminder)
gapminder

## # A tibble: 1,704 × 6
##    country      year      pop continent lifeExp gdpPercap
##    <chr>       <int>    <dbl> <chr>       <dbl>     <dbl>
##  1 Afghanistan  1952  8425333 Asia         28.8      779.
##  2 Afghanistan  1957  9240934 Asia         30.3      821.
##  3 Afghanistan  1962 10267083 Asia         32.0      853.
##  4 Afghanistan  1967 11537966 Asia         34.0      836.
##  5 Afghanistan  1972 13079460 Asia         36.1      740.
##  6 Afghanistan  1977 14880372 Asia         38.4      786.
##  7 Afghanistan  1982 12881816 Asia         39.9      978.
##  8 Afghanistan  1987 13867957 Asia         40.8      852.
##  9 Afghanistan  1992 16317921 Asia         41.7      649.
## 10 Afghanistan  1997 22227415 Asia         41.8      635.
## # … with 1,694 more rows
## # ℹ Use `print(n = ...)` to see more rows
…
So you can select the column you want to keep or the ones you want to remove.

1.9 Create new variables

Let say you want to compute the GDP, in millions, from the population and the GDP per capita.
For that, you can use the mutate() function:

mutate(gapminder, GPD = (gdpPercap * pop)/ 1000000)

## # A tibble: 1,704 × 7
##    country      year      pop continent lifeExp gdpPercap    GPD
##    <chr>       <int>    <dbl> <chr>       <dbl>     <dbl>  <dbl>
##  1 Afghanistan  1952  8425333 Asia         28.8      779.  6567.
##  2 Afghanistan  1957  9240934 Asia         30.3      821.  7585.
##  3 Afghanistan  1962 10267083 Asia         32.0      853.  8759.
##  4 Afghanistan  1967 11537966 Asia         34.0      836.  9648.
##  5 Afghanistan  1972 13079460 Asia         36.1      740.  9679.
##  6 Afghanistan  1977 14880372 Asia         38.4      786. 11698.
##  7 Afghanistan  1982 12881816 Asia         39.9      978. 12599.
##  8 Afghanistan  1987 13867957 Asia         40.8      852. 11821.
##  9 Afghanistan  1992 16317921 Asia         41.7      649. 10596.
## 10 Afghanistan  1997 22227415 Asia         41.8      635. 14122.
## # … with 1,694 more rows
## # ℹ Use `print(n = ...)` to see more rows

It’s companion function, transmute() does the same thing but only keep the new variables.

transmute(gapminder, GPD = (gdpPercap * pop)/ 1000000)

## # A tibble: 1,704 × 1
##       GPD
##     <dbl>
##  1  6567.
##  2  7585.
##  3  8759.
##  4  9648.
##  5  9679.
##  6 11698.
##  7 12599.
##  8 11821.
##  9 10596.
## 10 14122.
## # … with 1,694 more rows
## # ℹ Use `print(n = ...)` to see more rows

If you want to keep variables from the dataset, you can call them in the function call:

transmute(gapminder, country, year, GPD = (gdpPercap * pop)/ 1000000)

## # A tibble: 1,704 × 3
##    country      year    GPD
##    <chr>       <int>  <dbl>
##  1 Afghanistan  1952  6567.
##  2 Afghanistan  1957  7585.
##  3 Afghanistan  1962  8759.
##  4 Afghanistan  1967  9648.
##  5 Afghanistan  1972  9679.
##  6 Afghanistan  1977 11698.
##  7 Afghanistan  1982 12599.
##  8 Afghanistan  1987 11821.
##  9 Afghanistan  1992 10596.
## 10 Afghanistan  1997 14122.
## # … with 1,694 more rows
## # ℹ Use `print(n = ...)` to see more rows
…
Sometimes, we have a too detailed dataset and we want a more broader view of the data so we want to aggregate it.

To do so, dplyr provides a couple of functions: group_by() and summarise().
Like their names says, group_by() groups records who share the same value in a variable and summarise() compute the summary of non-grouping variables.

For example, let’s compute the yearly population of each continent.
To do this, we first group the data by continent and year and pass the result to summarise().
Into this second function, we create a new variable called population that is the sum of the variable pop of each group.

summarise(group_by(gapminder, continent, year), population = sum(pop))

## `summarise()` has grouped output by 'continent'. You can override using the
## `.groups` argument.

## # A tibble: 60 × 3
## # Groups:   continent [5]
##    continent  year population
##    <chr>     <int>      <dbl>
##  1 Africa     1952  237640501
##  2 Africa     1957  264837738
##  3 Africa     1962  296516865
##  4 Africa     1967  335289489
##  5 Africa     1972  379879541
##  6 Africa     1977  433061021
##  7 Africa     1982  499348587
##  8 Africa     1987  574834110
##  9 Africa     1992  659081517
## 10 Africa     1997  743832984
## # … with 50 more rows
## # ℹ Use `print(n = ...)` to see more rows
…
dplyr provides a large variety of functions to join datasets :
inner_join(),left_join(), right_join(), full_join(), nest_join() ,
semi_join(),anti_join().

Let’s create two datasets that shares a common key.

gapminder_left <- transmute(gapminder, 
                            key = paste0(country, "_" , year), 
                            country, 
                            continent, 
                            year)
gapminder_left

## # A tibble: 1,704 × 4
##    key              country     continent  year
##    <chr>            <chr>       <chr>     <int>
##  1 Afghanistan_1952 Afghanistan Asia       1952
##  2 Afghanistan_1957 Afghanistan Asia       1957
##  3 Afghanistan_1962 Afghanistan Asia       1962
##  4 Afghanistan_1967 Afghanistan Asia       1967
##  5 Afghanistan_1972 Afghanistan Asia       1972
##  6 Afghanistan_1977 Afghanistan Asia       1977
##  7 Afghanistan_1982 Afghanistan Asia       1982
##  8 Afghanistan_1987 Afghanistan Asia       1987
##  9 Afghanistan_1992 Afghanistan Asia       1992
## 10 Afghanistan_1997 Afghanistan Asia       1997
## # … with 1,694 more rows
## # ℹ Use `print(n = ...)` to see more rows

gapminder_right <- transmute(gapminder, 
                             key = paste0(country, "_" , year), 
                             lifeExp, 
                             pop, 
                             gdpPercap)
gapminder_right

## # A tibble: 1,704 × 4
##    key              lifeExp      pop gdpPercap
##    <chr>              <dbl>    <dbl>     <dbl>
##  1 Afghanistan_1952    28.8  8425333      779.
##  2 Afghanistan_1957    30.3  9240934      821.
##  3 Afghanistan_1962    32.0 10267083      853.
##  4 Afghanistan_1967    34.0 11537966      836.
##  5 Afghanistan_1972    36.1 13079460      740.
##  6 Afghanistan_1977    38.4 14880372      786.
##  7 Afghanistan_1982    39.9 12881816      978.
##  8 Afghanistan_1987    40.8 13867957      852.
##  9 Afghanistan_1992    41.7 16317921      649.
## 10 Afghanistan_1997    41.8 22227415      635.
## # … with 1,694 more rows
## # ℹ Use `print(n = ...)` to see more rows
…
In the following example, we show how to compute the mean GDP by decade of Europeans countries using pipes to chain functions.

gapminder %>% # pass the datset as the first argument
  filter(continent == "Europe") %>% # subset on European records
  select(-continent) %>% # remove the continent column
  mutate(decade = year - year %% 10, # compute decade
         GDP = (gdpPercap * pop) / 1000000 # compute GDP
         ) %>% 
  group_by(country, decade) %>% # grouping variables
  summarise(mean_GDP = mean(GDP)) # compute mean GDP of the decade

## `summarise()` has grouped output by 'country'. You can override using the
## `.groups` argument.

## # A tibble: 180 × 3
## # Groups:   country [30]
##    country decade mean_GDP
##    <chr>    <dbl>    <dbl>
##  1 Albania   1950    2461.
##  2 Albania   1960    4737.
##  3 Albania   1970    8182.
##  4 Albania   1980   10796.
##  5 Albania   1990    9627.
##  6 Albania   2000   18765.
##  7 Austria   1950   52056.
##  8 Austria   1960   85666.
##  9 Austria   1970  137585.
## 10 Austria   1980  171559.
## # … with 170 more rows
## # ℹ Use `print(n = ...)` to see more rows
With R 4.1.0, the built-in piping operator |> has been introduced:

gapminder |> # pass the datset as the first argument
  filter(continent == "Europe") |> # subset on European records
  select(-continent) |> # remove the continent column
  mutate(decade = year - year %% 10, # compute decade
         GDP = (gdpPercap * pop) / 1000000 # compute GDP
         ) |> 
  group_by(country, decade) |> # grouping variables
  summarise(mean_GDP = mean(GDP)) # compute mean GDP of the decade

## `summarise()` has grouped output by 'country'. You can override using the
## `.groups` argument.

## # A tibble: 180 × 3
## # Groups:   country [30]
##    country decade mean_GDP
##    <chr>    <dbl>    <dbl>
##  1 Albania   1950    2461.
##  2 Albania   1960    4737.
##  3 Albania   1970    8182.
##  4 Albania   1980   10796.
##  5 Albania   1990    9627.
##  6 Albania   2000   18765.
##  7 Austria   1950   52056.
##  8 Austria   1960   85666.
##  9 Austria   1970  137585.
## 10 Austria   1980  171559.
## # … with 170 more rows
## # ℹ Use `print(n = ...)` to see more rows
…
