Chapter 4 Manipulating vector data | Getting started with R and R-spatial
…
We will work on cycle hires points in London, so let’s start by loading that data.

4.1.1 Cycle hire dataset

cycle_hire <- read_sf(system.file("shapes/cycle_hire.geojson", package = "spData"))
cycle_hire

## Simple feature collection with 742 features and 5 fields
## Geometry type: POINT
## Dimension:     XY
## Bounding box:  xmin: -0.2367699 ymin: 51.45475 xmax: -0.002275 ymax: 51.54214
## Geodetic CRS:  WGS 84
## # A tibble: 742 × 6
##       id name               area         nbikes nempty               geometry
##    <int> <chr>              <chr>         <int>  <int>            <POINT [°]>
##  1     1 River Street       Clerkenwell       4     14  (-0.1099705 51.52916)
##  2     2 Phillimore Gardens Kensington        2     34  (-0.1975742 51.49961)
##  3     3 Christopher Street Liverpool S…      0     32 (-0.08460569 51.52128)
##  4     4 St. Chad's Street  King's Cross      4     19  (-0.1209737 51.53006)
##  5     5 Sedding Street     Sloane Squa…     15     12   (-0.156876 51.49313)
##  6     6 Broadcasting House Marylebone        0     18  (-0.1442289 51.51812)
##  7     7 Charlbert Street   St. John's …     15      0   (-0.1680743 51.5343)
##  8     8 Lodge Road         St. John's …      5     13  (-0.1701345 51.52834)
##  9     9 New Globe Walk     Bankside          3     16 (-0.09644075 51.50739)
## 10    10 Park Street        Bankside          1     17 (-0.09275416 51.50597)
## # … with 732 more rows
## # ℹ Use `print(n = ...)` to see more rows
…
4.3.1 Join by attributes

Let’s join them with a inner join to see how many corresponds.

inner_join(cycle_hire_27700,
  st_drop_geometry(london_27700), # we don't need the geometry here
  by = c( "area" = "NAME")
)

## Simple feature collection with 33 features and 12 fields
## Geometry type: POINT
## Dimension:     XY
## Bounding box:  xmin: 523978 ymin: 174408 xmax: 537912.7 ymax: 182972.5
## Projected CRS: OSGB 1936 / British National Grid
## # A tibble: 33 × 13
##       id name        area  nbikes nempty            geometry slots GSS_CODE 
##    <int> <chr>       <chr>  <int>  <int>         <POINT [m]> <int> <fct>    
##  1    80 Webber Str… Sout…     10     14 (531832.1 179680.3)    24 E09000028
##  2   108 Abbey Orch… West…      1     27 (529756.5 179341.1)    28 E09000033
##  3   118 Rochester … West…     12      1 (529528.7 179079.5)    13 E09000033
##  4   221 Horseferry… West…     12      3     (529880 178976)    15 E09000033
##  5   240 Colombo St… Sout…      9      5 (531568.5 180203.8)    14 E09000028
##  6   259 Embankment… West…      0     29 (530351.7 180115.2)    29 E09000033
##  7   267 Regency St… West…      7     12 (529765.2 178666.4)    19 E09000033
##  8   281 Smith Squa… West…      4     12 (530077.3 179091.2)    16 E09000033
##  9   299 Vincent Sq… West…      6     11 (529433.2 178872.2)    17 E09000033
## 10   302 Putney Pier Wand…     18     10   (523978 175723.3)    28 E09000032
## # … with 23 more rows, and 5 more variables: HECTARES <dbl>, NONLD_AREA <dbl>,
## #   ONS_INNER <fct>, SUB_2009 <fct>, SUB_2006 <fct>
## # ℹ Use `print(n = ...)` to see more rows, and `colnames()` to see all variable names
…
