Chapter 2 Introduction to the R-spatial ecosystem | Getting started with R and R-spatial
…
To read a spatial vector file, we just need to provide a file path to the read_sf() function:1

world = read_sf(file_path)

Our new object is an extended data frame with several non-spatial attributes and one special column geom.
When we print the object, it also provides a header with some basic spatial information:

world

## Simple feature collection with 177 features and 10 fields
## Geometry type: MULTIPOLYGON
## Dimension:     XY
## Bounding box:  xmin: -180 ymin: -89.9 xmax: 180 ymax: 83.64513
## Geodetic CRS:  WGS 84
## # A tibble: 177 × 11
##    iso_a2 name_l…¹ conti…² regio…³ subre…⁴ type  area_…⁵     pop lifeExp gdpPe…⁶
##    <chr>  <chr>    <chr>   <chr>   <chr>   <chr>   <dbl>   <dbl>   <dbl>   <dbl>
##  1 FJ     Fiji     Oceania Oceania Melane… Sove…  1.93e4  8.86e5    70.0   8222.
##  2 TZ     Tanzania Africa  Africa  Easter… Sove…  9.33e5  5.22e7    64.2   2402.
##  3 EH     Western… Africa  Africa  Northe… Inde…  9.63e4 NA         NA       NA 
##  4 CA     Canada   North … Americ… Northe… Sove…  1.00e7  3.55e7    82.0  43079.
##  5 US     United … North … Americ… Northe… Coun…  9.51e6  3.19e8    78.8  51922.
##  6 KZ     Kazakhs… Asia    Asia    Centra… Sove…  2.73e6  1.73e7    71.6  23587.
##  7 UZ     Uzbekis… Asia    Asia    Centra… Sove…  4.61e5  3.08e7    71.0   5371.
##  8 PG     Papua N… Oceania Oceania Melane… Sove…  4.65e5  7.76e6    65.2   3709.
##  9 ID     Indones… Asia    Asia    South-… Sove…  1.82e6  2.55e8    68.9  10003.
## 10 AR     Argenti… South … Americ… South … Sove…  2.78e6  4.30e7    76.3  18798.
## # … with 167 more rows, 1 more variable: geom <MULTIPOLYGON [°]>, and
## #   abbreviated variable names ¹​name_long, ²​continent, ³​region_un, ⁴​subregion,
## #   ⁵​area_km2, ⁶​gdpPercap
…
